…
## Dodge has the most models in this data set and the model that has the most variations is caravan 2wd. 


## a.
## Code: 
data1 <- mpg
u_models <- data1 %>% group_by(manufacturer, model) %>%
distinct() %>% count()
u_models
colnames(u_models) <- c("Manufacturer", "Model", "Counts")
u_models

## Output:
## A tibble: 38 × 3
## Groups:   Manufacturer, Model [38]
##   Manufacturer Model              Counts
##   <chr>        <chr>               <int>
## 1 audi         a4                      7
## 2 audi         a4 quattro              8
## 3 audi         a6 quattro              3
## 4 chevrolet    c1500 suburban 2wd      4
## 5 chevrolet    corvette                5
## 6 chevrolet    k1500 tahoe 4wd         4
## 7 chevrolet    malibu                  5
## 8 dodge        caravan 2wd             9
## 9 dodge        dakota pickup 4wd       8
## 10 dodge        durango 4wd             6
## … with 28 more rows
…
## 3)
## Code: 
data1 <- mpg
u_models <- data1 %>% group_by(manufacturer, model) %>%
distinct() %>% count()
u_models
colnames(u_models) <- c("Manufacturer", "Model", "Counts")
u_models

## Output:
## A tibble: 38 × 3
## Groups:   Manufacturer, Model [38]
##   Manufacturer Model              Counts
##   <chr>        <chr>               <int>
## 1 audi         a4                      7
## 2 audi         a4 quattro              8
## 3 audi         a6 quattro              3
## 4 chevrolet    c1500 suburban 2wd      4
## 5 chevrolet    corvette                5
## 6 chevrolet    k1500 tahoe 4wd         4
## 7 chevrolet    malibu                  5
## 8 dodge        caravan 2wd             9
## 9 dodge        dakota pickup 4wd       8
## 10 dodge       durango 4wd             6
## … with 28 more rows
…
## b.
## Answer: For me, the plot is already useful if you want to find a specific model and what 
## manufacturer made it, then this plot can really help you find the information that you need. 


## 4)
## Code:
data2 <- u_models %>% group_by(Model) %>% count()
colnames(data2) <- c("Model","Counts")
data2

## Output:
## A tibble: 38 × 2
## Groups:   Model [38]
##   Model              Counts
##   <chr>               <int>
## 1 4runner 4wd             1
## 2 a4                      1
## 3 a4 quattro              1
## 4 a6 quattro              1
## 5 altima                  1
## 6 c1500 suburban 2wd      1
## 7 camry                   1
## 8 camry solara            1
## 9 caravan 2wd             1
## 10 civic                  1
## … with 28 more rows
…
